uP_tb.vcd
$date
	Sat Nov 21 07:03:57 2020
$end
$version
	Icarus Verilog
$end
$timescale
	1ps
$end
$scope module testbench $end
$var wire 4 ! data_bus [3:0] $end
$var wire 1 " z_flag $end
$var wire 8 # program_byte [7:0] $end
$var wire 1 $ phase $end
$var wire 4 % oprnd [3:0] $end
$var wire 4 & instr [3:0] $end
$var wire 1 ' c_flag $end
$var wire 12 ( address_RAM [11:0] $end
$var wire 4 ) accu [3:0] $end
$var wire 12 * PC [11:0] $end
$var wire 4 + FF_out [3:0] $end
$var reg 1 , clock $end
$var reg 4 - pushbuttons [3:0] $end
$var reg 1 . reset $end
$var integer 32 / immediateDelay [31:0] $end
$var integer 32 0 jumpDelay [31:0] $end
$var integer 32 1 memoryDelay [31:0] $end
$var integer 32 2 nota [31:0] $end
$scope module uPmodule $end
$var wire 1 , clock $end
$var wire 4 3 data_bus [3:0] $end
$var wire 1 4 loadPC $end
$var wire 1 5 oeALU $end
$var wire 4 6 pushbuttons [3:0] $end
$var wire 1 . reset $end
$var wire 1 " z_flag $end
$var wire 1 7 weRAM $end
$var wire 8 8 program_byte [7:0] $end
$var wire 1 $ phase $end
$var wire 1 9 orRAM $end
$var wire 4 : oprnd [3:0] $end
$var wire 1 ; oeOprnd $end
$var wire 1 < oeIN $end
$var wire 4 = instr [3:0] $end
$var wire 1 > csRAM $end
$var wire 1 ' c_flag $end
$var wire 12 ? address_RAM [11:0] $end
$var wire 4 @ accu [3:0] $end
$var wire 1 A Z $end
$var wire 4 B Salida_ALU [3:0] $end
$var wire 3 C S [2:0] $end
$var wire 12 D PC [11:0] $end
$var wire 1 E LoadPC $end
$var wire 1 F LoadOut $end
$var wire 1 G LoadFlags $end
$var wire 1 H LoadA $end
$var wire 1 I IncPC $end
$var wire 4 J FF_out [3:0] $end
$var wire 1 K C $end
$scope module m1 $end
$var wire 1 , clk $end
$var wire 1 4 load $end
$var wire 12 L loadData [11:0] $end
$var wire 1 . reset $end
$var wire 1 I enabled $end
$var reg 12 M outValue [11:0] $end
$upscope $end
$scope module m10 $end
$var wire 4 N A [3:0] $end
$var wire 4 O F [3:0] $end
$var wire 1 A Z $end
$var wire 4 P S [3:0] $end
$var wire 1 K C $end
$var wire 4 Q B [3:0] $end
$var reg 5 R regS [4:0] $end
$upscope $end
$scope module m11 $end
$var wire 4 S A [3:0] $end
$var wire 4 T Y [3:0] $end
$var wire 1 5 enabled $end
$upscope $end
$scope module m12 $end
$var wire 4 U A [3:0] $end
$var wire 4 V Y [3:0] $end
$var wire 1 < enabled $end
$upscope $end
$scope module m13 $end
$var wire 1 " Z_flag $end
$var wire 1 7 WeRAM $end
$var wire 3 W S [2:0] $end
$var wire 1 $ Phase $end
$var wire 1 ; OeOprnd $end
$var wire 1 < OeIN $end
$var wire 1 9 OeALU $end
$var wire 1 E LoadPC $end
$var wire 1 F LoadOut $end
$var wire 1 G LoadFlags $end
$var wire 1 H LoadA $end
$var wire 4 X Instr [3:0] $end
$var wire 1 I IncPC $end
$var wire 7 Y Entradas [6:0] $end
$var wire 1 > CsRAM $end
$var wire 1 ' C_flag $end
$var reg 13 Z Salidas [12:0] $end
$upscope $end
$scope module m2 $end
$var wire 12 [ address [11:0] $end
$var wire 8 \ data [7:0] $end
$upscope $end
$scope module m3 $end
$var wire 8 ] D [7:0] $end
$var wire 1 , clk $end
$var wire 1 ^ enable $end
$var wire 1 . reset $end
$var wire 4 _ oprnd [3:0] $end
$var wire 4 ` instr [3:0] $end
$scope module U1 $end
$var wire 1 a D $end
$var wire 1 , clk $end
$var wire 1 ^ enable $end
$var wire 1 . reset $end
$var reg 1 b Q $end
$upscope $end
$scope module U2 $end
$var wire 1 c D $end
$var wire 1 , clk $end
$var wire 1 ^ enable $end
$var wire 1 . reset $end
$var reg 1 d Q $end
$upscope $end
$scope module U3 $end
$var wire 1 e D $end
$var wire 1 , clk $end
$var wire 1 ^ enable $end
$var wire 1 . reset $end
$var reg 1 f Q $end
$upscope $end
$scope module U4 $end
$var wire 1 g D $end
$var wire 1 , clk $end
$var wire 1 ^ enable $end
$var wire 1 . reset $end
$var reg 1 h Q $end
$upscope $end
$scope module U5 $end
$var wire 1 i D $end
$var wire 1 , clk $end
$var wire 1 ^ enable $end
$var wire 1 . reset $end
$var reg 1 j Q $end
$upscope $end
$scope module U6 $end
$var wire 1 k D $end
$var wire 1 , clk $end
$var wire 1 ^ enable $end
$var wire 1 . reset $end
$var reg 1 l Q $end
$upscope $end
$scope module U7 $end
$var wire 1 m D $end
$var wire 1 , clk $end
$var wire 1 ^ enable $end
$var wire 1 . reset $end
$var reg 1 n Q $end
$upscope $end
$scope module U8 $end
$var wire 1 o D $end
$var wire 1 , clk $end
$var wire 1 ^ enable $end
$var wire 1 . reset $end
$var reg 1 p Q $end
$upscope $end
$upscope $end
$scope module m4 $end
$var wire 1 K C $end
$var wire 1 A Z $end
$var wire 1 , clk $end
$var wire 1 G enable $end
$var wire 1 . reset $end
$var wire 1 " Q2 $end
$var wire 1 ' Q1 $end
$scope module U1 $end
$var wire 1 K D $end
$var wire 1 , clk $end
$var wire 1 G enable $end
$var wire 1 . reset $end
$var reg 1 ' Q $end
$upscope $end
$scope module U2 $end
$var wire 1 A D $end
$var wire 1 , clk $end
$var wire 1 G enable $end
$var wire 1 . reset $end
$var reg 1 " Q $end
$upscope $end
$upscope $end
$scope module m5 $end
$var wire 1 , clk $end
$var wire 1 . reset $end
$var wire 1 $ Q $end
$scope module U1 $end
$var wire 1 q D $end
$var wire 1 , clk $end
$var wire 1 . reset $end
$var reg 1 $ Q $end
$upscope $end
$upscope $end
$scope module m6 $end
$var wire 4 r A [3:0] $end
$var wire 4 s Y [3:0] $end
$var wire 1 ; enabled $end
$upscope $end
$scope module m7 $end
$var wire 1 > chips $end
$var wire 4 t data [3:0] $end
$var wire 1 7 enableRW $end
$var wire 4 u oprnd [3:0] $end
$var wire 8 v program_byte [7:0] $end
$var wire 12 w address [11:0] $end
$var reg 4 x data_out [3:0] $end
$upscope $end
$scope module m8 $end
$var wire 4 y D [3:0] $end
$var wire 1 , clk $end
$var wire 1 F enabled $end
$var wire 1 . reset $end
$var reg 4 z Q [3:0] $end
$upscope $end
$scope module m9 $end
$var wire 4 { D [3:0] $end
$var wire 1 , clk $end
$var wire 1 H enable $end
$var wire 1 . reset $end
$var reg 4 | Q [3:0] $end
$upscope $end
$upscope $end
$upscope $end
$enddefinitions $end
#0
$dumpvars
bx |
bx {
bx z
bx y
bx x
bx w
bx v
bx u
bx t
bx s
bx r
xq
xp
xo
xn
xm
xl
xk
xj
xi
xh
xg
xf
xe
xd
xc
xb
xa
bx `
bx _
x^
bx ]
bx \
bx [
bx Z
bx Y
bx X
bx W
bx V
b110 U
bx T
bx S
bx R
bx Q
bx P
bx O
bx N
bx M
bx L
xK
bx J
xI
xH
xG
xF
xE
bx D
bx C
bx B
xA
bx @
bx ?
x>
bx =
x<
x;
bx :
x9
bx 8
x7
b110 6
z5
z4
bx 3
b0 2
b100010100 1
b1010010000 0
b10000 /
0.
b110 -
0,
bx +
bx *
bx )
bx (
x'
bx &
bx %
x$
bx #
x"
bx !
$end
#2
1I
0E
0H
0G
b0 C
b0 W
0>
07
19
0<
0;
0F
b1000000001000 Z
0A
b101 B
b101 P
b101 S
b101 {
1K
0a
1c
0e
0g
1i
1k
1m
1o
1q
1^
b10101 R
b1001111 #
b1001111 8
b1001111 \
b1001111 ]
b1001111 v
b0 *
b0 D
b0 M
b0 [
0b
0d
0f
b0 &
b0 =
b0 X
b0 `
0h
0j
0l
0n
b1001111 w
b1001111 (
b1001111 ?
b1001111 L
b0 %
b0 :
b0 _
b0 r
b0 u
0p
0'
0"
b0 Y
0$
b0 +
b0 J
b0 z
b0 )
b0 @
b0 Q
b0 |
1.
#3
0.
#5
0I
1H
1G
b10 C
b10 W
09
1;
b11010000010 Z
0q
0^
1a
1g
1$
1p
1n
1l
b1111 %
b1111 :
b1111 _
b1111 r
b1111 u
1j
b100001 Y
b100 &
b100 =
b100 X
b100 `
1d
b111111011111 w
b111111011111 (
b111111011111 ?
b111111011111 L
b11011111 #
b11011111 8
b11011111 \
b11011111 ]
b11011111 v
b1 *
b1 D
b1 M
b1 [
1,
#10
0,
#15
1I
0H
0G
b0 C
b0 W
19
0;
b1000000001000 Z
1q
1^
1'
b100100 Y
0$
b101 )
b101 @
b101 Q
b101 |
1,
#20
0,
#25
0I
1F
b1001 Z
0q
0^
0a
0i
0k
0m
1$
1h
b1101101 Y
b1101 &
b1101 =
b1101 X
b1101 `
1b
b111101010001 w
b111101010001 (
b111101010001 ?
b111101010001 L
b1010001 #
b1010001 8
b1010001 \
b1010001 ]
b1010001 v
b10 *
b10 D
b10 M
b10 [
1,
#30
0,
#35
1I
0F
b1000000001000 Z
1q
1^
b1101100 Y
0$
bx +
bx J
bx z
1,
#40
0,
#45
0I
1H
1G
b10 C
b10 W
09
1<
b11010000100 Z
0q
0^
0g
0o
1$
0n
0l
b1 %
b1 :
b1 _
b1 r
b1 u
0j
b101101 Y
b101 &
b101 =
b101 X
b101 `
0b
b101000000 w
b101000000 (
b101000000 ?
b101000000 L
b1000000 #
b1000000 8
b1000000 \
b1000000 ]
b1000000 v
b11 *
b11 D
b11 M
b11 [
1,
#50
0,
#55
1I
0H
0G
b0 C
b0 W
19
0<
b1000000001000 Z
1q
1^
b101100 Y
0$
1,
#60
0,
#65
0I
1H
1G
b10 C
b10 W
09
1;
b11010000010 Z
0q
0^
1i
1k
1m
1o
1$
b0 %
b0 :
b0 _
b0 r
b0 u
0p
b100101 Y
b100 &
b100 =
b100 X
b100 `
0h
b1001111 w
b1001111 (
b1001111 ?
b1001111 L
b1001111 #
b1001111 8
b1001111 \
b1001111 ]
b1001111 v
b100 *
b100 D
b100 M
b100 [
1,
#70
0,
#75
1I
0H
0G
b0 C
b0 W
19
0;
b1000000001000 Z
1q
1^
b100100 Y
0$
1,
#80
0,
#85
0I
1H
1G
b10 C
b10 W
09
1;
b11010000010 Z
0q
0^
1a
0c
1e
0k
0o
b100101 Y
1$
1p
1n
1l
b1111 %
b1111 :
b1111 _
b1111 r
b1111 u
1j
b111110101010 w
b111110101010 (
b111110101010 ?
b111110101010 L
b10101010 #
b10101010 8
b10101010 \
b10101010 ]
b10101010 v
b101 *
b101 D
b101 M
b101 [
1,
#90
0,
#95
1I
0H
0G
b0 C
b0 W
19
0;
b1000000001000 Z
1q
1^
b100100 Y
0$
1,
#100
0,
#105
0I
1H
1G
b11 C
b11 W
09
1;
b11011000010 Z
0q
0^
0a
0m
1$
0p
b1010 %
b1010 :
b1010 _
b1010 r
b1010 u
0l
1f
0d
b1010101 Y
b1010 &
b1010 =
b1010 X
b1010 `
1b
b101000101000 w
b101000101000 (
b101000101000 ?
b101000101000 L
b101000 #
b101000 8
b101000 \
b101000 ]
b101000 v
b110 *
b110 D
b110 M
b110 [
1,
#110
0,
#115
1I
0H
0G
b0 C
b0 W
19
0;
b1000000001000 Z
1q
1^
b1010100 Y
0$
1,
#120
0,
#125
0I
1G
b1 C
b1 W
09
1;
b1001000010 Z
0q
0^
1c
0e
1m
1$
b1000 %
b1000 :
b1000 _
b1000 r
b1000 u
0n
b10101 Y
b10 &
b10 =
b10 X
b10 `
0b
b100001001010 w
b100001001010 (
b100001001010 ?
b100001001010 L
b1001010 #
b1001010 8
b1001010 \
b1001010 ]
b1001010 v
b111 *
b111 D
b111 M
b111 [
1,
#130
0,
#135
1I
0G
b0 C
b0 W
19
0;
b1000000001000 Z
1q
1^
b10100 Y
0$
1,
#140
0,
#145
0I
1H
1G
b10 C
b10 W
09
1;
b11010000010 Z
0q
0^
0c
1e
1k
0m
1$
b1010 %
b1010 :
b1010 _
b1010 r
b1010 u
1n
0f
b100101 Y
b100 &
b100 =
b100 X
b100 `
1d
b101000101100 w
b101000101100 (
b101000101100 ?
b101000101100 L
b101100 #
b101100 8
b101100 \
b101100 ]
b101100 v
b1000 *
b1000 D
b1000 M
b1000 [
1,
#150
0,
#155
1I
0H
0G
b0 C
b0 W
19
0;
b1000000001000 Z
1q
1^
b100100 Y
0$
1,
#160
0,
#165
0I
1G
b1 C
b1 W
09
1;
b1001000010 Z
0q
0^
1a
0i
0k
1o
1$
0n
b1100 %
b1100 :
b1100 _
b1100 r
b1100 u
1l
1f
b10101 Y
b10 &
b10 =
b10 X
b10 `
0d
b110010100001 w
b110010100001 (
b110010100001 ?
b110010100001 L
b10100001 #
b10100001 8
b10100001 \
b10100001 ]
b10100001 v
b1001 *
b1001 D
b1001 M
b1001 [
1,
#170
0,
#175
1I
0G
b0 C
b0 W
19
0;
b1000000001000 Z
1q
1^
b10100 Y
0$
1,
#180
0,
#185
0I
1H
1G
b11 C
b11 W
09
1;
b11011000010 Z
0q
0^
1c
1i
1m
1$
1p
0l
b1 %
b1 :
b1 _
b1 r
b1 u
0j
b1010101 Y
b1010 &
b1010 =
b1010 X
b1010 `
1b
b111101011 w
b111101011 (
b111101011 ?
b111101011 L
b11101011 #
b11101011 8
b11101011 \
b11101011 ]
b11101011 v
b1010 *
b1010 D
b1010 M
b1010 [
1,
#190
0,
#195
1I
0H
0G
b0 C
b0 W
19
0;
b1000000001000 Z
1q
1^
b1010100 Y
0$
1,
#200
0,
#205
0I
1H
1G
b100 C
b100 W
09
1;
b11100000010 Z
0q
0^
0e
1g
0i
0m
0o
1$
1n
b1011 %
b1011 :
b1011 _
b1011 r
b1011 u
1j
b1110101 Y
b1110 &
b1110 =
b1110 X
b1110 `
1d
b101111010000 w
b101111010000 (
b101111010000 ?
b101111010000 L
b11010000 #
b11010000 8
b11010000 \
b11010000 ]
b11010000 v
b1011 *
b1011 D
b1011 M
b1011 [
1,
#210
0,
#215
1I
0H
0G
b0 C
b0 W
19
0;
b1000000001000 Z
1q
1^
b1110100 Y
0$
1,
#220
0,
#225
0I
1F
b1001 Z
0q
0^
0a
1$
0p
0n
b0 %
b0 :
b0 _
b0 r
b0 u
0j
1h
b1101101 Y
b1101 &
b1101 =
b1101 X
b1101 `
0f
b1010000 w
b1010000 (
b1010000 ?
b1010000 L
b1010000 #
b1010000 8
b1010000 \
b1010000 ]
b1010000 v
b1100 *
b1100 D
b1100 M
b1100 [
1,
#230
0,
#235
1I
0F
b1000000001000 Z
1q
1^
b1101100 Y
0$
1,
#236
b1110 -
b1110 6
b1110 U
#240
0,
#245
0I
1H
1G
b10 C
b10 W
09
1<
b11010000100 Z
0q
0^
1e
1$
b101101 Y
b101 &
b101 =
b101 X
b101 `
0b
b1110000 w
b1110000 (
b1110000 ?
b1110000 L
b1110000 #
b1110000 8
b1110000 \
b1110000 ]
b1110000 v
b1101 *
b1101 D
b1101 M
b1101 [
1,
#250
0,
#255
1I
0H
0G
b0 C
b0 W
19
0<
b1000000001000 Z
1q
1^
b101100 Y
0$
1,
#260
0,
#265
1>
17
b1000000111000 Z
0q
0^
0c
0e
0g
1$
b111101 Y
b111 &
b111 =
b111 X
b111 `
1f
b0 w
b0 (
b0 ?
b0 L
b0 #
b0 8
b0 \
b0 ]
b0 v
b1110 *
b1110 D
b1110 M
b1110 [
1,
#270
0,
#275
0>
07
b1000000001000 Z
1c
1i
1k
1m
1o
1q
1^
b1001111 w
b1001111 (
b1001111 ?
b1001111 L
b1001111 #
b1001111 8
b1001111 \
b1001111 ]
b1001111 v
b1111 *
b1111 D
b1111 M
b1111 [
b111100 Y
0$
1,
#280
0,
#285
0I
1H
1G
b10 C
b10 W
09
1;
b11010000010 Z
0q
0^
1e
1g
0i
0k
0m
1$
1p
1n
1l
b1111 %
b1111 :
b1111 _
b1111 r
b1111 u
1j
0h
b100101 Y
b100 &
b100 =
b100 X
b100 `
0f
b111101110001 w
b111101110001 (
b111101110001 ?
b111101110001 L
b1110001 #
b1110001 8
b1110001 \
b1110001 ]
b1110001 v
b10000 *
b10000 D
b10000 M
b10000 [
1,
#290
0,
#295
1I
0H
0G
b0 C
b0 W
19
0;
b1000000001000 Z
1q
1^
b100100 Y
0$
1,
#300
0,
#305
1>
17
b1000000111000 Z
0q
0^
0c
0e
1$
0n
0l
b1 %
b1 :
b1 _
b1 r
b1 u
0j
1h
b111101 Y
b111 &
b111 =
b111 X
b111 `
1f
b100010001 w
b100010001 (
b100010001 ?
b100010001 L
b10001 #
b10001 8
b10001 \
b10001 ]
b10001 v
b10001 *
b10001 D
b10001 M
b10001 [
1,
#310
0,
#315
0>
07
b1000000001000 Z
1c
0g
1i
1m
0o
1q
1^
b101001010 w
b101001010 (
b101001010 ?
b101001010 L
b1001010 #
b1001010 8
b1001010 \
b1001010 ]
b1001010 v
b10010 *
b10010 D
b10010 M
b10010 [
b111100 Y
0$
1,
#320
0,
#325
0I
1H
1G
b10 C
b10 W
09
1;
b11010000010 Z
0q
0^
1e
1g
0i
1$
0p
1n
b1010 %
b1010 :
b1010 _
b1010 r
b1010 u
1j
0h
b100101 Y
b100 &
b100 =
b100 X
b100 `
0f
b101001110010 w
b101001110010 (
b101001110010 ?
b101001110010 L
b1110010 #
b1110010 8
b1110010 \
b1110010 ]
b1110010 v
b10011 *
b10011 D
b10011 M
b10011 [
1,
#330
0,
#335
1I
0H
0G
b0 C
b0 W
19
0;
b1000000001000 Z
1q
1^
b100100 Y
0$
1,
#340
0,
#345
1>
17
b1000000111000 Z
0q
0^
0c
0g
1$
b10 %
b10 :
b10 _
b10 r
b10 u
0j
1h
b111101 Y
b111 &
b111 =
b111 X
b111 `
1f
b1000100010 w
b1000100010 (
b1000100010 ?
b1000100010 L
b100010 #
b100010 8
b100010 \
b100010 ]
b100010 v
b10100 *
b10100 D
b10100 M
b10100 [
1,
#350
0,
#355
0>
07
b1000000001000 Z
1c
0e
0m
1o
1q
1^
b1001000001 w
b1001000001 (
b1001000001 ?
b1001000001 L
b1000001 #
b1000001 8
b1000001 \
b1000001 ]
b1000001 v
b10101 *
b10101 D
b10101 M
b10101 [
b111100 Y
0$
1,
#360
0,
#365
0I
1H
1G
b10 C
b10 W
09
1;
b11010000010 Z
0q
0^
1e
1g
1m
1$
1p
b1 %
b1 :
b1 _
b1 r
b1 u
0n
0h
b100101 Y
b100 &
b100 =
b100 X
b100 `
0f
b101110011 w
b101110011 (
b101110011 ?
b101110011 L
b1110011 #
b1110011 8
b1110011 \
b1110011 ]
b1110011 v
b10110 *
b10110 D
b10110 M
b10110 [
1,
#370
0,
#375
1I
0H
0G
b0 C
b0 W
19
0;
b1000000001000 Z
1q
1^
b100100 Y
0$
1,
#380
0,
#385
1>
17
b1000000111000 Z
0q
0^
0c
1$
b11 %
b11 :
b11 _
b11 r
b11 u
1n
1h
b111101 Y
b111 &
b111 =
b111 X
b111 `
1f
b1100110011 w
b1100110011 (
b1100110011 ?
b1100110011 L
b110011 #
b110011 8
b110011 \
b110011 ]
b110011 v
b10111 *
b10111 D
b10111 M
b10111 [
1,
#390
0,
#395
0>
07
b1000000001000 Z
1c
0g
0m
0o
1q
1^
b1101100000 w
b1101100000 (
b1101100000 ?
b1101100000 L
b1100000 #
b1100000 8
b1100000 \
b1100000 ]
b1100000 v
b11000 *
b11000 D
b11000 M
b11000 [
b111100 Y
0$
1,
#400
0,
#405
1H
1G
b10 C
b10 W
1>
09
b1011010100000 Z
0q
0^
0c
0e
1$
0p
b0 %
b0 :
b0 _
b0 r
b0 u
0n
b110101 Y
b110 &
b110 =
b110 X
b110 `
0h
b0 w
b0 (
b0 ?
b0 L
b0 #
b0 8
b0 \
b0 ]
b0 v
b11001 *
b11001 D
b11001 M
b11001 [
1,
#410
0,
#415
0H
0G
b0 C
b0 W
0>
19
b1000000001000 Z
1c
1e
1o
1q
1^
b1100001 w
b1100001 (
b1100001 ?
b1100001 L
b1100001 #
b1100001 8
b1100001 \
b1100001 ]
b1100001 v
b11010 *
b11010 D
b11010 M
b11010 [
b110100 Y
0$
1,
#420
0,
#425
1H
1G
b10 C
b10 W
1>
09
b1011010100000 Z
0q
0^
0c
0e
1g
b110101 Y
1$
b1 %
b1 :
b1 _
b1 r
b1 u
1p
b100010001 w
b100010001 (
b100010001 ?
b100010001 L
b10001 #
b10001 8
b10001 \
b10001 ]
b10001 v
b11011 *
b11011 D
b11011 M
b11011 [
1,
#430
0,
#435
0H
0G
b0 C
b0 W
0>
19
b1000000001000 Z
1c
1e
0g
1m
0o
1q
1^
b101100010 w
b101100010 (
b101100010 ?
b101100010 L
b1100010 #
b1100010 8
b1100010 \
b1100010 ]
b1100010 v
b11100 *
b11100 D
b11100 M
b11100 [
b110100 Y
0$
1,
#440
0,
#445
1H
1G
b10 C
b10 W
1>
09
b1011010100000 Z
0q
0^
0c
b110101 Y
1$
0p
b10 %
b10 :
b10 _
b10 r
b10 u
1n
b1000100010 w
b1000100010 (
b1000100010 ?
b1000100010 L
b100010 #
b100010 8
b100010 \
b100010 ]
b100010 v
b11101 *
b11101 D
b11101 M
b11101 [
1,
#450
0,
#455
0H
0G
b0 C
b0 W
0>
19
b1000000001000 Z
1c
1o
1q
1^
b1001100011 w
b1001100011 (
b1001100011 ?
b1001100011 L
b1100011 #
b1100011 8
b1100011 \
b1100011 ]
b1100011 v
b11110 *
b11110 D
b11110 M
b11110 [
b110100 Y
0$
1,
#460
0,
#465
1H
1G
b10 C
b10 W
1>
09
b1011010100000 Z
0q
0^
0c
1g
b110101 Y
1$
b11 %
b11 :
b11 _
b11 r
b11 u
1p
b1100110011 w
b1100110011 (
b1100110011 ?
b1100110011 L
b110011 #
b110011 8
b110011 \
b110011 ]
b110011 v
b11111 *
b11111 D
b11111 M
b11111 [
1,
#470
0,
#475
0H
0G
b0 C
b0 W
0>
19
b1000000001000 Z
1c
0e
0g
1i
0o
1q
1^
b1101001010 w
b1101001010 (
b1101001010 ?
b1101001010 L
b1001010 #
b1001010 8
b1001010 \
b1001010 ]
b1001010 v
b100000 *
b100000 D
b100000 M
b100000 [
b110100 Y
0$
1,
#480
0,
#485
0I
1H
1G
b10 C
b10 W
09
1;
b11010000010 Z
0q
0^
1a
1e
1g
0i
1$
0p
b1010 %
b1010 :
b1010 _
b1010 r
b1010 u
1j
b100101 Y
b100 &
b100 =
b100 X
b100 `
0f
b101011110010 w
b101011110010 (
b101011110010 ?
b101011110010 L
b11110010 #
b11110010 8
b11110010 \
b11110010 ]
b11110010 v
b100001 *
b100001 D
b100001 M
b100001 [
1,
#490
0,
#495
1I
0H
0G
b0 C
b0 W
19
0;
b1000000001000 Z
1q
1^
b100100 Y
0$
1,
#500
0,
#505
1H
1G
b100 C
b100 W
1>
09
b1011100100000 Z
0q
0^
0a
0c
0g
1$
b10 %
b10 :
b10 _
b10 r
b10 u
0j
1h
1f
b1111101 Y
b1111 &
b1111 =
b1111 X
b1111 `
1b
b1000100010 w
b1000100010 (
b1000100010 ?
b1000100010 L
b100010 #
b100010 8
b100010 \
b100010 ]
b100010 v
b100010 *
b100010 D
b100010 M
b100010 [
1,
#510
0,
#515
0H
0G
b0 C
b0 W
0>
19
b1000000001000 Z
1c
0e
1i
1k
1o
1q
1^
b1001001111 w
b1001001111 (
b1001001111 ?
b1001001111 L
b1001111 #
b1001111 8
b1001111 \
b1001111 ]
b1001111 v
b100011 *
b100011 D
b100011 M
b100011 [
b1111100 Y
0$
1,
#516
b101000 2
#520
0,
#525
0I
1H
1G
b10 C
b10 W
09
1;
b11010000010 Z
0q
0^
1a
0c
1e
1g
0i
0k
1$
1p
1l
b1111 %
b1111 :
b1111 _
b1111 r
b1111 u
1j
0h
0f
b100101 Y
b100 &
b100 =
b100 X
b100 `
0b
b111110110011 w
b111110110011 (
b111110110011 ?
b111110110011 L
b10110011 #
b10110011 8
b10110011 \
b10110011 ]
b10110011 v
b100100 *
b100100 D
b100100 M
b100100 [
1,
#530
0,
#535
1I
0H
0G
b0 C
b0 W
19
0;
b1000000001000 Z
1q
1^
b100100 Y
0$
1,
#540
0,
#545
1H
1G
b11 C
b11 W
1>
09
b1011011100000 Z
0q
0^
0a
1$
0l
b11 %
b11 :
b11 _
b11 r
b11 u
0j
1h
1f
0d
b1011101 Y
b1011 &
b1011 =
b1011 X
b1011 `
1b
b1100110011 w
b1100110011 (
b1100110011 ?
b1100110011 L
b110011 #
b110011 8
b110011 \
b110011 ]
b110011 v
b100101 *
b100101 D
b100101 M
b100101 [
1,
#550
0,
#555
0H
0G
b0 C
b0 W
0>
19
b1000000001000 Z
1c
0e
0g
1i
0m
0o
1q
1^
b1101001000 w
b1101001000 (
b1101001000 ?
b1101001000 L
b1001000 #
b1001000 8
b1001000 \
b1001000 ]
b1001000 v
b100110 *
b100110 D
b100110 M
b100110 [
b1011100 Y
0$
1,
#560
0,
#565
0I
1H
1G
b10 C
b10 W
09
1;
b11010000010 Z
0q
0^
0c
1e
1g
0i
1m
1$
0p
0n
b1000 %
b1000 :
b1000 _
b1000 r
b1000 u
1j
0h
0f
1d
b100101 Y
b100 &
b100 =
b100 X
b100 `
0b
b100000110010 w
b100000110010 (
b100000110010 ?
b100000110010 L
b110010 #
b110010 8
b110010 \
b110010 ]
b110010 v
b100111 *
b100111 D
b100111 M
b100111 [
1,
#570
0,
#575
1I
0H
0G
b0 C
b0 W
19
0;
b1000000001000 Z
1q
1^
b100100 Y
0$
1,
#580
0,
#585
1G
b1 C
b1 W
1>
09
b1001001100000 Z
0q
0^
0g
1$
1n
b10 %
b10 :
b10 _
b10 r
b10 u
0j
1h
1f
b11101 Y
b11 &
b11 =
b11 X
b11 `
0d
b1000100010 w
b1000100010 (
b1000100010 ?
b1000100010 L
b100010 #
b100010 8
b100010 \
b100010 ]
b100010 v
b101000 *
b101000 D
b101000 M
b101000 [
1,
#590
0,
#595
0G
b0 C
b0 W
0>
19
b1000000001000 Z
1c
0e
1i
1k
0m
1q
1^
b1001001100 w
b1001001100 (
b1001001100 ?
b1001001100 L
b1001100 #
b1001100 8
b1001100 \
b1001100 ]
b1001100 v
b101001 *
b101001 D
b101001 M
b101001 [
b11100 Y
0$
1,
#600
0,
#605
0I
1H
1G
b10 C
b10 W
09
1;
b11010000010 Z
0q
0^
0c
1e
1g
0i
0k
1m
1$
0n
1l
b1100 %
b1100 :
b1100 _
b1100 r
b1100 u
1j
0h
0f
b100101 Y
b100 &
b100 =
b100 X
b100 `
1d
b110000110010 w
b110000110010 (
b110000110010 ?
b110000110010 L
b110010 #
b110010 8
b110010 \
b110010 ]
b110010 v
b101010 *
b101010 D
b101010 M
b101010 [
1,
#610
0,
#615
1I
0H
0G
b0 C
b0 W
19
0;
b1000000001000 Z
1q
1^
b100100 Y
0$
1,
#620
0,
#625
1G
b1 C
b1 W
1>
09
b1001001100000 Z
0q
0^
0g
1$
1n
0l
b10 %
b10 :
b10 _
b10 r
b10 u
0j
1h
1f
b11101 Y
b11 &
b11 =
b11 X
b11 `
0d
b1000100010 w
b1000100010 (
b1000100010 ?
b1000100010 L
b100010 #
b100010 8
b100010 \
b100010 ]
b100010 v
b101011 *
b101011 D
b101011 M
b101011 [
1,
#630
0,
#635
0G
b0 C
b0 W
0>
19
b1000000001000 Z
1a
1c
0e
1i
1q
1^
b1011001010 w
b1011001010 (
b1011001010 ?
b1011001010 L
b11001010 #
b11001010 8
b11001010 \
b11001010 ]
b11001010 v
b101100 *
b101100 D
b101100 M
b101100 [
b11100 Y
0$
1,
#640
0,
#645
0I
1E
b100000001000 Z
0q
0^
0a
0c
0i
0m
1o
1$
b1010 %
b1010 :
b1010 _
b1010 r
b1010 u
1j
0h
0f
1d
b1100101 Y
b1100 &
b1100 =
b1100 X
b1100 `
1b
b101000000001 w
b101000000001 (
b101000000001 ?
b101000000001 L
b1 #
b1 8
b1 \
b1 ]
b1 v
b101101 *
b101101 D
b101101 M
b101101 [
1,
#650
0,
#655
1I
0E
b1000000001000 Z
1q
1^
b1100100 Y
0$
1,
#660
0,
#665
0I
1E
b100000001000 Z
0q
0^
xa
xc
xe
xg
xi
xk
xm
xo
1$
1p
0n
b1 %
b1 :
b1 _
b1 r
b1 u
0j
0d
b101 Y
b0 &
b0 =
b0 X
b0 `
0b
b1xxxxxxxx w
b1xxxxxxxx (
b1xxxxxxxx ?
b1xxxxxxxx L
bx #
bx 8
bx \
bx ]
bx v
b101110 *
b101110 D
b101110 M
b101110 [
1,
#670
0,
#675
1I
0E
b1000000001000 Z
1q
1^
b100 Y
0$
1,
#680
0,
#685
0I
09
b0 Z
0q
0^
1$
xp
xn
xl
bx w
bx (
bx ?
bx L
bx %
bx :
bx _
bx r
bx u
xj
xh
xf
xd
bx101 Y
bx &
bx =
bx X
bx `
xb
b101111 *
b101111 D
b101111 M
b101111 [
1,
#690
0,
#695
1I
19
b1000000001000 Z
1q
1^
bx100 Y
0$
1,
#700
0,
#705
0I
09
b0 Z
0q
0^
bx101 Y
1$
b110000 *
b110000 D
b110000 M
b110000 [
1,
#710
0,
#715
1I
19
b1000000001000 Z
1q
1^
bx100 Y
0$
1,
#720
0,
#725
0I
09
b0 Z
0q
0^
bx101 Y
1$
b110001 *
b110001 D
b110001 M
b110001 [
1,
#730
0,
#735
1I
19
b1000000001000 Z
1q
1^
bx100 Y
0$
1,
#740
0,
#745
0I
09
b0 Z
0q
0^
bx101 Y
1$
b110010 *
b110010 D
b110010 M
b110010 [
1,
#750
0,
#755
1I
19
b1000000001000 Z
1q
1^
bx100 Y
0$
1,
#760
0,
#765
0I
09
b0 Z
0q
0^
bx101 Y
1$
b110011 *
b110011 D
b110011 M
b110011 [
1,
#770
0,
#775
1I
19
b1000000001000 Z
1q
1^
bx100 Y
0$
1,
#780
0,
#785
0I
09
b0 Z
0q
0^
bx101 Y
1$
b110100 *
b110100 D
b110100 M
b110100 [
1,
#790
0,
#795
1I
19
b1000000001000 Z
1q
1^
bx100 Y
0$
1,
#800
0,
