Versión_con_testbench_propio/uP_tb.vcd
$date
	Sun Nov 22 02:26:09 2020
$end
$version
	Icarus Verilog
$end
$timescale
	1ps
$end
$scope module testbench $end
$var wire 4 ! data_bus [3:0] $end
$var wire 1 " z_flag $end
$var wire 8 # program_byte [7:0] $end
$var wire 1 $ phase $end
$var wire 4 % oprnd [3:0] $end
$var wire 4 & instr [3:0] $end
$var wire 1 ' c_flag $end
$var wire 12 ( address_RAM [11:0] $end
$var wire 4 ) accu [3:0] $end
$var wire 12 * PC [11:0] $end
$var wire 4 + FF_out [3:0] $end
$var reg 1 , clock $end
$var reg 4 - pushbuttons [3:0] $end
$var reg 1 . reset $end
$var integer 32 / immediateDelay [31:0] $end
$var integer 32 0 jumpDelay [31:0] $end
$var integer 32 1 memoryDelay [31:0] $end
$var integer 32 2 nota [31:0] $end
$scope module uPmodule $end
$var wire 1 , clock $end
$var wire 4 3 data_bus [3:0] $end
$var wire 4 4 pushbuttons [3:0] $end
$var wire 1 . reset $end
$var wire 1 " z_flag $end
$var wire 1 5 weRAM $end
$var wire 8 6 program_byte [7:0] $end
$var wire 1 $ phase $end
$var wire 4 7 oprnd [3:0] $end
$var wire 1 8 oeOprnd $end
$var wire 1 9 oeIN $end
$var wire 1 : oeALU $end
$var wire 4 ; instr [3:0] $end
$var wire 1 < csRAM $end
$var wire 1 ' c_flag $end
$var wire 12 = address_RAM [11:0] $end
$var wire 4 > accu [3:0] $end
$var wire 1 ? Z $end
$var wire 4 @ Salida_ALU [3:0] $end
$var wire 3 A S [2:0] $end
$var wire 12 B PC [11:0] $end
$var wire 1 C LoadPC $end
$var wire 1 D LoadOut $end
$var wire 1 E LoadFlags $end
$var wire 1 F LoadA $end
$var wire 1 G IncPC $end
$var wire 4 H FF_out [3:0] $end
$var wire 1 I C $end
$scope module m1 $end
$var wire 1 , clk $end
$var wire 1 . reset $end
$var wire 12 J loadData [11:0] $end
$var wire 1 C load $end
$var wire 1 G enabled $end
$var reg 12 K outValue [11:0] $end
$upscope $end
$scope module m10 $end
$var wire 4 L B [3:0] $end
$var wire 4 M F [3:0] $end
$var wire 1 ? Z $end
$var wire 4 N S [3:0] $end
$var wire 1 I C $end
$var wire 4 O A [3:0] $end
$var reg 5 P regS [4:0] $end
$upscope $end
$scope module m11 $end
$var wire 4 Q A [3:0] $end
$var wire 4 R Y [3:0] $end
$var wire 1 : enabled $end
$upscope $end
$scope module m12 $end
$var wire 4 S A [3:0] $end
$var wire 4 T Y [3:0] $end
$var wire 1 9 enabled $end
$upscope $end
$scope module m13 $end
$var wire 1 " Z_flag $end
$var wire 1 5 WeRAM $end
$var wire 3 U S [2:0] $end
$var wire 1 $ Phase $end
$var wire 1 8 OeOprnd $end
$var wire 1 9 OeIN $end
$var wire 1 : OeALU $end
$var wire 1 C LoadPC $end
$var wire 1 D LoadOut $end
$var wire 1 E LoadFlags $end
$var wire 1 F LoadA $end
$var wire 4 V Instr [3:0] $end
$var wire 1 G IncPC $end
$var wire 7 W Entradas [6:0] $end
$var wire 1 < CsRAM $end
$var wire 1 ' C_flag $end
$var reg 13 X Salidas [12:0] $end
$upscope $end
$scope module m2 $end
$var wire 12 Y address [11:0] $end
$var wire 8 Z data [7:0] $end
$upscope $end
$scope module m3 $end
$var wire 8 [ D [7:0] $end
$var wire 1 , clk $end
$var wire 1 \ enable $end
$var wire 1 . reset $end
$var wire 4 ] oprnd [3:0] $end
$var wire 4 ^ instr [3:0] $end
$scope module U1 $end
$var wire 1 _ D $end
$var wire 1 , clk $end
$var wire 1 \ enable $end
$var wire 1 . reset $end
$var reg 1 ` Q $end
$upscope $end
$scope module U2 $end
$var wire 1 a D $end
$var wire 1 , clk $end
$var wire 1 \ enable $end
$var wire 1 . reset $end
$var reg 1 b Q $end
$upscope $end
$scope module U3 $end
$var wire 1 c D $end
$var wire 1 , clk $end
$var wire 1 \ enable $end
$var wire 1 . reset $end
$var reg 1 d Q $end
$upscope $end
$scope module U4 $end
$var wire 1 e D $end
$var wire 1 , clk $end
$var wire 1 \ enable $end
$var wire 1 . reset $end
$var reg 1 f Q $end
$upscope $end
$scope module U5 $end
$var wire 1 g D $end
$var wire 1 , clk $end
$var wire 1 \ enable $end
$var wire 1 . reset $end
$var reg 1 h Q $end
$upscope $end
$scope module U6 $end
$var wire 1 i D $end
$var wire 1 , clk $end
$var wire 1 \ enable $end
$var wire 1 . reset $end
$var reg 1 j Q $end
$upscope $end
$scope module U7 $end
$var wire 1 k D $end
$var wire 1 , clk $end
$var wire 1 \ enable $end
$var wire 1 . reset $end
$var reg 1 l Q $end
$upscope $end
$scope module U8 $end
$var wire 1 m D $end
$var wire 1 , clk $end
$var wire 1 \ enable $end
$var wire 1 . reset $end
$var reg 1 n Q $end
$upscope $end
$upscope $end
$scope module m4 $end
$var wire 1 I C $end
$var wire 1 ? Z $end
$var wire 1 , clk $end
$var wire 1 E enable $end
$var wire 1 . reset $end
$var wire 1 " Q2 $end
$var wire 1 ' Q1 $end
$scope module U1 $end
$var wire 1 I D $end
$var wire 1 , clk $end
$var wire 1 E enable $end
$var wire 1 . reset $end
$var reg 1 ' Q $end
$upscope $end
$scope module U2 $end
$var wire 1 ? D $end
$var wire 1 , clk $end
$var wire 1 E enable $end
$var wire 1 . reset $end
$var reg 1 " Q $end
$upscope $end
$upscope $end
$scope module m5 $end
$var wire 1 , clk $end
$var wire 1 . reset $end
$var wire 1 $ Q $end
$scope module U1 $end
$var wire 1 o D $end
$var wire 1 , clk $end
$var wire 1 . reset $end
$var reg 1 $ Q $end
$upscope $end
$upscope $end
$scope module m6 $end
$var wire 4 p A [3:0] $end
$var wire 4 q Y [3:0] $end
$var wire 1 8 enabled $end
$upscope $end
$scope module m7 $end
$var wire 1 < chips $end
$var wire 4 r data [3:0] $end
$var wire 1 5 enableRW $end
$var wire 4 s oprnd [3:0] $end
$var wire 8 t program_byte [7:0] $end
$var wire 12 u address [11:0] $end
$var reg 4 v data_out [3:0] $end
$upscope $end
$scope module m8 $end
$var wire 4 w D [3:0] $end
$var wire 1 , clk $end
$var wire 1 D enabled $end
$var wire 1 . reset $end
$var reg 4 x Q [3:0] $end
$upscope $end
$scope module m9 $end
$var wire 4 y D [3:0] $end
$var wire 1 , clk $end
$var wire 1 F enable $end
$var wire 1 . reset $end
$var reg 4 z Q [3:0] $end
$upscope $end
$upscope $end
$upscope $end
$enddefinitions $end
#0
$dumpvars
bx z
b101 y
bx x
bx w
bx v
bx u
bx t
bx s
bx r
bx q
bx p
xo
xn
xm
xl
xk
xj
xi
xh
xg
xf
xe
xd
xc
xb
xa
x`
x_
bx ^
bx ]
x\
bx [
bx Z
bx Y
bx X
bx W
bx V
bx U
bx T
b110 S
bx R
b101 Q
b10101 P
bx O
b101 N
b0xxx M
bx L
bx K
bx J
1I
bx H
xG
xF
xE
xD
xC
bx B
bx A
b101 @
0?
bx >
bx =
x<
bx ;
x:
x9
x8
bx 7
bx 6
x5
b110 4
bx 3
b0 2
b100010100 1
b1010010000 0
b10000 /
0.
b110 -
0,
bx +
bx *
bx )
bx (
x'
bx &
bx %
x$
bx #
x"
bx !
$end
#2
1?
b0 @
b0 N
b0 Q
b0 y
0I
b0 !
b0 3
b0 L
b0 R
b0 T
b0 q
b0 r
b0 w
b0 P
1G
0C
0F
0E
b0 M
b0 A
b0 U
0<
05
1:
09
08
0D
b1000000001000 X
0_
1a
0c
0e
1g
1i
1k
1m
1o
1\
b1001111 #
b1001111 6
b1001111 Z
b1001111 [
b1001111 t
b0 *
b0 B
b0 K
b0 Y
0`
0b
0d
b0 &
b0 ;
b0 V
b0 ^
0f
0h
0j
0l
b1001111 (
b1001111 =
b1001111 J
b1001111 u
b0 %
b0 7
b0 ]
b0 p
b0 s
0n
0'
0"
b0 W
0$
b0 +
b0 H
b0 x
b0 )
b0 >
b0 O
b0 z
1.
#3
0.
#5
0?
b1111 @
b1111 N
b1111 Q
b1111 y
b1111 P
b1111 !
b1111 3
b1111 L
b1111 R
b1111 T
b1111 q
b1111 r
b1111 w
0G
1F
1E
b10 M
b10 A
b10 U
0:
18
b11010000010 X
0o
0\
1_
1e
1$
1n
1l
1j
b1111 %
b1111 7
b1111 ]
b1111 p
b1111 s
1h
b100001 W
b100 &
b100 ;
b100 V
b100 ^
1b
b111111011111 (
b111111011111 =
b111111011111 J
b111111011111 u
b11011111 #
b11011111 6
b11011111 Z
b11011111 [
b11011111 t
b1 *
b1 B
b1 K
b1 Y
1,
#10
0,
#15
b1111 !
b1111 3
b1111 L
b1111 R
b1111 T
b1111 q
b1111 r
b1111 w
1G
0F
0E
b0 M
b0 A
b0 U
1:
08
b1000000001000 X
1o
1\
b100000 W
0$
b1111 )
b1111 >
b1111 O
b1111 z
1,
#16
b1000110 2
#20
0,
#25
0G
1D
b1001 X
0o
0\
0_
0g
0i
0k
1$
1f
b1101001 W
b1101 &
b1101 ;
b1101 V
b1101 ^
1`
b111101010001 (
b111101010001 =
b111101010001 J
b111101010001 u
b1010001 #
b1010001 6
b1010001 Z
b1010001 [
b1010001 t
b10 *
b10 B
b10 K
b10 Y
1,
#30
0,
#35
1G
0D
b1000000001000 X
1o
1\
b1101000 W
0$
b1111 +
b1111 H
b1111 x
1,
#36
b1100111 2
#40
0,
#45
b110 @
b110 N
b110 Q
b110 y
b110 P
b110 !
b110 3
b110 L
b110 R
b110 T
b110 q
b110 r
b110 w
0G
1F
1E
b10 M
b10 A
b10 U
0:
19
b11010000100 X
0o
0\
0e
0m
1$
0l
0j
b1 %
b1 7
b1 ]
b1 p
b1 s
0h
b101001 W
b101 &
b101 ;
b101 V
b101 ^
0`
b101000000 (
b101000000 =
b101000000 J
b101000000 u
b1000000 #
b1000000 6
b1000000 Z
b1000000 [
b1000000 t
b11 *
b11 B
b11 K
b11 Y
1,
#50
0,
#55
b110 !
b110 3
b110 L
b110 R
b110 T
b110 q
b110 r
b110 w
1G
0F
0E
b0 M
b0 A
b0 U
1:
09
b1000000001000 X
1o
1\
b101000 W
0$
b110 )
b110 >
b110 O
b110 z
1,
#56
b10001000 2
#60
0,
#65
1?
b0 @
b0 N
b0 Q
b0 y
b0 P
b0 !
b0 3
b0 L
b0 R
b0 T
b0 q
b0 r
b0 w
0G
1F
1E
b10 M
b10 A
b10 U
0:
18
b11010000010 X
0o
0\
1g
1i
1k
1m
1$
b0 %
b0 7
b0 ]
b0 p
b0 s
0n
b100001 W
b100 &
b100 ;
b100 V
b100 ^
0f
b1001111 (
b1001111 =
b1001111 J
b1001111 u
b1001111 #
b1001111 6
b1001111 Z
b1001111 [
b1001111 t
b100 *
b100 B
b100 K
b100 Y
1,
#70
0,
#75
b0 !
b0 3
b0 L
b0 R
b0 T
b0 q
b0 r
b0 w
1G
0F
0E
b0 M
b0 A
b0 U
1:
08
b1000000001000 X
1o
1\
1"
b100010 W
0$
b0 )
b0 >
b0 O
b0 z
1,
#80
0,
#85
0?
b1111 @
b1111 N
b1111 Q
b1111 y
b1111 P
b1111 !
b1111 3
b1111 L
b1111 R
b1111 T
b1111 q
b1111 r
b1111 w
0G
1F
1E
b10 M
b10 A
b10 U
0:
18
b11010000010 X
0o
0\
1_
0a
1c
0i
0m
b100011 W
1$
1n
1l
1j
b1111 %
b1111 7
b1111 ]
b1111 p
b1111 s
1h
b111110101010 (
b111110101010 =
b111110101010 J
b111110101010 u
b10101010 #
b10101010 6
b10101010 Z
b10101010 [
b10101010 t
b101 *
b101 B
b101 K
b101 Y
1,
#90
0,
#95
b1111 !
b1111 3
b1111 L
b1111 R
b1111 T
b1111 q
b1111 r
b1111 w
1G
0F
0E
b0 M
b0 A
b0 U
1:
08
b1000000001000 X
1o
1\
0"
b100000 W
0$
b1111 )
b1111 >
b1111 O
b1111 z
1,
#100
0,
#105
b1001 @
b1001 N
b1001 Q
b1001 y
1I
b11001 P
b1010 !
b1010 3
b1010 L
b1010 R
b1010 T
b1010 q
b1010 r
b1010 w
0G
1F
1E
b11 M
b11 A
b11 U
0:
18
b11011000010 X
0o
0\
0_
0k
1$
0n
b1010 %
b1010 7
b1010 ]
b1010 p
b1010 s
0j
1d
0b
b1010001 W
b1010 &
b1010 ;
b1010 V
b1010 ^
1`
b101000101000 (
b101000101000 =
b101000101000 J
b101000101000 u
b101000 #
b101000 6
b101000 Z
b101000 [
b101000 t
b110 *
b110 B
b110 K
b110 Y
1,
#110
0,
#115
0I
b1001 !
b1001 3
b1001 L
b1001 R
b1001 T
b1001 q
b1001 r
b1001 w
1G
0F
0E
b0 M
b0 A
b0 U
1:
08
b1000000001000 X
b1001 @
b1001 N
b1001 Q
b1001 y
1o
1\
b1001 P
1'
b1010100 W
0$
b1001 )
b1001 >
b1001 O
b1001 z
1,
#116
b10101001 2
#120
0,
#125
b1 @
b1 N
b1 Q
b1 y
b1 P
b1000 !
b1000 3
b1000 L
b1000 R
b1000 T
b1000 q
b1000 r
b1000 w
0G
1E
b1 M
b1 A
b1 U
0:
18
b1001000010 X
0o
0\
1a
0c
1k
1$
b1000 %
b1000 7
b1000 ]
b1000 p
b1000 s
0l
b10101 W
b10 &
b10 ;
b10 V
b10 ^
0`
b100001001010 (
b100001001010 =
b100001001010 J
b100001001010 u
b1001010 #
b1001010 6
b1001010 Z
b1001010 [
b1001010 t
b111 *
b111 B
b111 K
b111 Y
1,
#130
0,
#135
b1001 @
b1001 N
b1001 Q
b1001 y
b1001 P
b1001 !
b1001 3
b1001 L
b1001 R
b1001 T
b1001 q
b1001 r
b1001 w
1G
0E
b0 M
b0 A
b0 U
1:
08
b1000000001000 X
1o
1\
0'
b10000 W
0$
1,
#136
b11001010 2
#140
0,
#145
b1010 @
b1010 N
b1010 Q
b1010 y
b1010 P
b1010 !
b1010 3
b1010 L
b1010 R
b1010 T
b1010 q
b1010 r
b1010 w
0G
1F
1E
b10 M
b10 A
b10 U
0:
18
b11010000010 X
0o
0\
0a
1c
1i
0k
1$
b1010 %
b1010 7
b1010 ]
b1010 p
b1010 s
1l
0d
b100001 W
b100 &
b100 ;
b100 V
b100 ^
1b
b101000101100 (
b101000101100 =
b101000101100 J
b101000101100 u
b101100 #
b101100 6
b101100 Z
b101100 [
b101100 t
b1000 *
b1000 B
b1000 K
b1000 Y
1,
#150
0,
#155
b1010 !
b1010 3
b1010 L
b1010 R
b1010 T
b1010 q
b1010 r
b1010 w
1G
0F
0E
b0 M
b0 A
b0 U
1:
08
b1000000001000 X
1o
1\
b100000 W
0$
b1010 )
b1010 >
b1010 O
b1010 z
1,
#160
0,
#165
b1110 @
b1110 N
b1110 Q
b1110 y
1I
b11110 P
b1100 !
b1100 3
b1100 L
b1100 R
b1100 T
b1100 q
b1100 r
b1100 w
0G
1E
b1 M
b1 A
b1 U
0:
18
b1001000010 X
0o
0\
1_
0g
0i
1m
1$
0l
b1100 %
b1100 7
b1100 ]
b1100 p
b1100 s
1j
1d
b10001 W
b10 &
b10 ;
b10 V
b10 ^
0b
b110010100001 (
b110010100001 =
b110010100001 J
b110010100001 u
b10100001 #
b10100001 6
b10100001 Z
b10100001 [
b10100001 t
b1001 *
b1001 B
b1001 K
b1001 Y
1,
#170
0,
#175
b1010 @
b1010 N
b1010 Q
b1010 y
0I
b1010 P
b1010 !
b1010 3
b1010 L
b1010 R
b1010 T
b1010 q
b1010 r
b1010 w
1G
0E
b0 M
b0 A
b0 U
1:
08
b1000000001000 X
1o
1\
1'
b10100 W
0$
1,
#176
b11101011 2
#180
0,
#185
b1011 @
b1011 N
b1011 Q
b1011 y
b1011 P
b1 !
b1 3
b1 L
b1 R
b1 T
b1 q
b1 r
b1 w
0G
1F
1E
b11 M
b11 A
b11 U
0:
18
b11011000010 X
0o
0\
1a
1g
1k
1$
1n
0j
b1 %
b1 7
b1 ]
b1 p
b1 s
0h
b1010101 W
b1010 &
b1010 ;
b1010 V
b1010 ^
1`
b111101011 (
b111101011 =
b111101011 J
b111101011 u
b11101011 #
b11101011 6
b11101011 Z
b11101011 [
b11101011 t
b1010 *
b1010 B
b1010 K
b1010 Y
1,
#190
0,
#195
b1011 !
b1011 3
b1011 L
b1011 R
b1011 T
b1011 q
b1011 r
b1011 w
1G
0F
0E
b0 M
b0 A
b0 U
1:
08
b1000000001000 X
b1011 @
b1011 N
b1011 Q
b1011 y
1o
1\
b1011 P
0'
b1010000 W
0$
b1011 )
b1011 >
b1011 O
b1011 z
1,
#196
b100001100 2
#200
0,
#205
b100 @
b100 N
b100 Q
b100 y
b100 P
0G
1F
1E
b100 M
b100 A
b100 U
0:
18
b11100000010 X
0o
0\
0c
1e
0g
0k
0m
1$
1l
b1011 %
b1011 7
b1011 ]
b1011 p
b1011 s
1h
b1110001 W
b1110 &
b1110 ;
b1110 V
b1110 ^
1b
b101111010000 (
b101111010000 =
b101111010000 J
b101111010000 u
b11010000 #
b11010000 6
b11010000 Z
b11010000 [
b11010000 t
b1011 *
b1011 B
b1011 K
b1011 Y
1,
#210
0,
#215
b100 !
b100 3
b100 L
b100 R
b100 T
b100 q
b100 r
b100 w
1G
0F
0E
b0 M
b0 A
b0 U
1:
08
b1000000001000 X
b100 @
b100 N
b100 Q
b100 y
1o
1\
b100 P
b1110000 W
0$
b100 )
b100 >
b100 O
b100 z
1,
#216
b101001110 2
#220
0,
#225
0G
1D
b1001 X
0o
0\
0_
1$
0n
0l
b0 %
b0 7
b0 ]
b0 p
b0 s
0h
1f
b1101001 W
b1101 &
b1101 ;
b1101 V
b1101 ^
0d
b1010000 (
b1010000 =
b1010000 J
b1010000 u
b1010000 #
b1010000 6
b1010000 Z
b1010000 [
b1010000 t
b1100 *
b1100 B
b1100 K
b1100 Y
1,
#230
0,
#235
1G
0D
b1000000001000 X
1o
1\
b1101000 W
0$
b100 +
b100 H
b100 x
1,
#236
b1110 -
b1110 4
b1110 S
b101101111 2
#240
0,
#245
b1110 @
b1110 N
b1110 Q
b1110 y
b1110 P
b1110 !
b1110 3
b1110 L
b1110 R
b1110 T
b1110 q
b1110 r
b1110 w
0G
1F
1E
b10 M
b10 A
b10 U
0:
19
b11010000100 X
0o
0\
1c
1$
b101001 W
b101 &
b101 ;
b101 V
b101 ^
0`
b1110000 (
b1110000 =
b1110000 J
b1110000 u
b1110000 #
b1110000 6
b1110000 Z
b1110000 [
b1110000 t
b1101 *
b1101 B
b1101 K
b1101 Y
1,
#250
0,
#255
b1110 !
b1110 3
b1110 L
b1110 R
b1110 T
b1110 q
b1110 r
b1110 w
1G
0F
0E
b0 M
b0 A
b0 U
1:
09
b1000000001000 X
1o
1\
b101000 W
0$
b1110 )
b1110 >
b1110 O
b1110 z
1,
#256
b110010000 2
#260
0,
#265
1<
15
b1000000111000 X
0o
0\
0a
0c
0e
1$
b111001 W
b111 &
b111 ;
b111 V
b111 ^
1d
b0 (
b0 =
b0 J
b0 u
b0 #
b0 6
b0 Z
b0 [
b0 t
b1110 *
b1110 B
b1110 K
b1110 Y
1,
#270
0,
#275
0<
05
b1000000001000 X
1a
1g
1i
1k
1m
1o
1\
b1001111 (
b1001111 =
b1001111 J
b1001111 u
b1001111 #
b1001111 6
b1001111 Z
b1001111 [
b1001111 t
b1111 *
b1111 B
b1111 K
b1111 Y
b111000 W
0$
1,
#280
0,
#285
b1111 @
b1111 N
b1111 Q
b1111 y
b1111 P
b1111 !
b1111 3
b1111 L
b1111 R
b1111 T
b1111 q
b1111 r
b1111 w
0G
1F
1E
b10 M
b10 A
b10 U
0:
18
b11010000010 X
0o
0\
1c
1e
0g
0i
0k
1$
1n
1l
1j
b1111 %
b1111 7
b1111 ]
b1111 p
b1111 s
1h
0f
b100001 W
b100 &
b100 ;
b100 V
b100 ^
0d
b111101110001 (
b111101110001 =
b111101110001 J
b111101110001 u
b1110001 #
b1110001 6
b1110001 Z
b1110001 [
b1110001 t
b10000 *
b10000 B
b10000 K
b10000 Y
1,
#290
0,
#295
b1111 !
b1111 3
b1111 L
b1111 R
b1111 T
b1111 q
b1111 r
b1111 w
1G
0F
0E
b0 M
b0 A
b0 U
1:
08
b1000000001000 X
1o
1\
b100000 W
0$
b1111 )
b1111 >
b1111 O
b1111 z
1,
#300
0,
#305
1<
15
b1000000111000 X
0o
0\
0a
0c
1$
0l
0j
b1 %
b1 7
b1 ]
b1 p
b1 s
0h
1f
b111001 W
b111 &
b111 ;
b111 V
b111 ^
1d
b100010001 (
b100010001 =
b100010001 J
b100010001 u
b10001 #
b10001 6
b10001 Z
b10001 [
b10001 t
b10001 *
b10001 B
b10001 K
b10001 Y
1,
#310
0,
#315
0<
05
b1000000001000 X
1a
0e
1g
1k
0m
1o
1\
b101001010 (
b101001010 =
b101001010 J
b101001010 u
b1001010 #
b1001010 6
b1001010 Z
b1001010 [
b1001010 t
b10010 *
b10010 B
b10010 K
b10010 Y
b111000 W
0$
1,
#320
0,
#325
b1010 @
b1010 N
b1010 Q
b1010 y
b1010 P
b1010 !
b1010 3
b1010 L
b1010 R
b1010 T
b1010 q
b1010 r
b1010 w
0G
1F
1E
b10 M
b10 A
b10 U
0:
18
b11010000010 X
0o
0\
1c
1e
0g
1$
0n
1l
b1010 %
b1010 7
b1010 ]
b1010 p
b1010 s
1h
0f
b100001 W
b100 &
b100 ;
b100 V
b100 ^
0d
b101001110010 (
b101001110010 =
b101001110010 J
b101001110010 u
b1110010 #
b1110010 6
b1110010 Z
b1110010 [
b1110010 t
b10011 *
b10011 B
b10011 K
b10011 Y
1,
#330
0,
#335
b1010 !
b1010 3
b1010 L
b1010 R
b1010 T
b1010 q
b1010 r
b1010 w
1G
0F
0E
b0 M
b0 A
b0 U
1:
08
b1000000001000 X
1o
1\
b100000 W
0$
b1010 )
b1010 >
b1010 O
b1010 z
1,
#340
0,
#345
1<
15
b1000000111000 X
0o
0\
0a
0e
1$
b10 %
b10 7
b10 ]
b10 p
b10 s
0h
1f
b111001 W
b111 &
b111 ;
b111 V
b111 ^
1d
b1000100010 (
b1000100010 =
b1000100010 J
b1000100010 u
b100010 #
b100010 6
b100010 Z
b100010 [
b100010 t
b10100 *
b10100 B
b10100 K
b10100 Y
1,
#350
0,
#355
0<
05
b1000000001000 X
1a
0c
0k
1m
1o
1\
b1001000001 (
b1001000001 =
b1001000001 J
b1001000001 u
b1000001 #
b1000001 6
b1000001 Z
b1000001 [
b1000001 t
b10101 *
b10101 B
b10101 K
b10101 Y
b111000 W
0$
1,
#360
0,
#365
b1 @
b1 N
b1 Q
b1 y
b1 P
b1 !
b1 3
b1 L
b1 R
b1 T
b1 q
b1 r
b1 w
0G
1F
1E
b10 M
b10 A
b10 U
0:
18
b11010000010 X
0o
0\
1c
1e
1k
1$
1n
b1 %
b1 7
b1 ]
b1 p
b1 s
0l
0f
b100001 W
b100 &
b100 ;
b100 V
b100 ^
0d
b101110011 (
b101110011 =
b101110011 J
b101110011 u
b1110011 #
b1110011 6
b1110011 Z
b1110011 [
b1110011 t
b10110 *
b10110 B
b10110 K
b10110 Y
1,
#370
0,
#375
b1 !
b1 3
b1 L
b1 R
b1 T
b1 q
b1 r
b1 w
1G
0F
0E
b0 M
b0 A
b0 U
1:
08
b1000000001000 X
1o
1\
b100000 W
0$
b1 )
b1 >
b1 O
b1 z
1,
#380
0,
#385
1<
15
b1000000111000 X
0o
0\
0a
1$
b11 %
b11 7
b11 ]
b11 p
b11 s
1l
1f
b111001 W
b111 &
b111 ;
b111 V
b111 ^
1d
b1100110011 (
b1100110011 =
b1100110011 J
b1100110011 u
b110011 #
b110011 6
b110011 Z
b110011 [
b110011 t
b10111 *
b10111 B
b10111 K
b10111 Y
1,
#390
0,
#395
0<
05
b1000000001000 X
1a
0e
0k
0m
1o
1\
b1101100000 (
b1101100000 =
b1101100000 J
b1101100000 u
b1100000 #
b1100000 6
b1100000 Z
b1100000 [
b1100000 t
b11000 *
b11000 B
b11000 K
b11000 Y
b111000 W
0$
1,
#400
0,
#405
0?
b1110 @
b1110 N
b1110 Q
b1110 y
b1110 P
b1110 v
b1110 !
b1110 3
b1110 L
b1110 R
b1110 T
b1110 q
b1110 r
b1110 w
1F
1E
b10 M
b10 A
b10 U
1<
0:
b1011010100000 X
0o
0\
0a
0c
1$
0n
b0 %
b0 7
b0 ]
b0 p
b0 s
0l
b110001 W
b110 &
b110 ;
b110 V
b110 ^
0f
b0 (
b0 =
b0 J
b0 u
b0 #
b0 6
b0 Z
b0 [
b0 t
b11001 *
b11001 B
b11001 K
b11001 Y
1,
#410
0,
#415
0F
0E
b0 M
b0 A
b0 U
0<
1:
b1000000001000 X
0?
b1110 @
b1110 N
b1110 Q
b1110 y
b1110 P
b1110 !
b1110 3
b1110 L
b1110 R
b1110 T
b1110 q
b1110 r
b1110 w
1a
1c
1m
bx v
1o
1\
b1100001 (
b1100001 =
b1100001 J
b1100001 u
b1100001 #
b1100001 6
b1100001 Z
b1100001 [
b1100001 t
b11010 *
b11010 B
b11010 K
b11010 Y
b110000 W
0$
b1110 )
b1110 >
b1110 O
b1110 z
1,
#420
0,
#425
b1111 @
b1111 N
b1111 Q
b1111 y
b1111 P
b1111 v
b1111 !
b1111 3
b1111 L
b1111 R
b1111 T
b1111 q
b1111 r
b1111 w
1F
1E
b10 M
b10 A
b10 U
1<
0:
b1011010100000 X
0o
0\
0a
0c
1e
b110001 W
1$
b1 %
b1 7
b1 ]
b1 p
b1 s
1n
b100010001 (
b100010001 =
b100010001 J
b100010001 u
b10001 #
b10001 6
b10001 Z
b10001 [
b10001 t
b11011 *
b11011 B
b11011 K
b11011 Y
1,
#430
0,
#435
0F
0E
b0 M
b0 A
b0 U
0<
1:
b1000000001000 X
0?
b1111 @
b1111 N
b1111 Q
b1111 y
b1111 P
b1111 !
b1111 3
b1111 L
b1111 R
b1111 T
b1111 q
b1111 r
b1111 w
1a
1c
0e
1k
0m
bx v
1o
1\
b101100010 (
b101100010 =
b101100010 J
b101100010 u
b1100010 #
b1100010 6
b1100010 Z
b1100010 [
b1100010 t
b11100 *
b11100 B
b11100 K
b11100 Y
b110000 W
0$
b1111 )
b1111 >
b1111 O
b1111 z
1,
#440
0,
#445
b1010 @
b1010 N
b1010 Q
b1010 y
b1010 P
b1010 v
b1010 !
b1010 3
b1010 L
b1010 R
b1010 T
b1010 q
b1010 r
b1010 w
1F
1E
b10 M
b10 A
b10 U
1<
0:
b1011010100000 X
0o
0\
0a
b110001 W
1$
0n
b10 %
b10 7
b10 ]
b10 p
b10 s
1l
b1000100010 (
b1000100010 =
b1000100010 J
b1000100010 u
b100010 #
b100010 6
b100010 Z
b100010 [
b100010 t
b11101 *
b11101 B
b11101 K
b11101 Y
1,
#450
0,
#455
0F
0E
b0 M
b0 A
b0 U
0<
1:
b1000000001000 X
0?
b1010 @
b1010 N
b1010 Q
b1010 y
b1010 P
b1010 !
b1010 3
b1010 L
b1010 R
b1010 T
b1010 q
b1010 r
b1010 w
1a
1m
bx v
1o
1\
b1001100011 (
b1001100011 =
b1001100011 J
b1001100011 u
b1100011 #
b1100011 6
b1100011 Z
b1100011 [
b1100011 t
b11110 *
b11110 B
b11110 K
b11110 Y
b110000 W
0$
b1010 )
b1010 >
b1010 O
b1010 z
1,
#460
0,
#465
b1 @
b1 N
b1 Q
b1 y
b1 P
b1 v
b1 !
b1 3
b1 L
b1 R
b1 T
b1 q
b1 r
b1 w
1F
1E
b10 M
b10 A
b10 U
1<
0:
b1011010100000 X
0o
0\
0a
1e
b110001 W
1$
b11 %
b11 7
b11 ]
b11 p
b11 s
1n
b1100110011 (
b1100110011 =
b1100110011 J
b1100110011 u
b110011 #
b110011 6
b110011 Z
b110011 [
b110011 t
b11111 *
b11111 B
b11111 K
b11111 Y
1,
#470
0,
#475
0F
0E
b0 M
b0 A
b0 U
0<
1:
b1000000001000 X
0?
b1 @
b1 N
b1 Q
b1 y
b1 P
b1 !
b1 3
b1 L
b1 R
b1 T
b1 q
b1 r
b1 w
1a
0c
0e
1g
0m
bx v
1o
1\
b1101001010 (
b1101001010 =
b1101001010 J
b1101001010 u
b1001010 #
b1001010 6
b1001010 Z
b1001010 [
b1001010 t
b100000 *
b100000 B
b100000 K
b100000 Y
b110000 W
0$
b1 )
b1 >
b1 O
b1 z
1,
#476
b111100000 2
#480
0,
#485
0?
b1010 @
b1010 N
b1010 Q
b1010 y
b1010 P
b1010 !
b1010 3
b1010 L
b1010 R
b1010 T
b1010 q
b1010 r
b1010 w
0G
1F
1E
b10 M
b10 A
b10 U
0:
18
b11010000010 X
0o
0\
1_
1c
1e
0g
1$
0n
b1010 %
b1010 7
b1010 ]
b1010 p
b1010 s
1h
b100001 W
b100 &
b100 ;
b100 V
b100 ^
0d
b101011110010 (
b101011110010 =
b101011110010 J
b101011110010 u
b11110010 #
b11110010 6
b11110010 Z
b11110010 [
b11110010 t
b100001 *
b100001 B
b100001 K
b100001 Y
1,
#490
0,
#495
b1010 !
b1010 3
b1010 L
b1010 R
b1010 T
b1010 q
b1010 r
b1010 w
1G
0F
0E
b0 M
b0 A
b0 U
1:
08
b1000000001000 X
1o
1\
b100000 W
0$
b1010 )
b1010 >
b1010 O
b1010 z
1,
#500
0,
#505
b101 @
b101 N
b101 Q
b101 y
b101 P
b1010 v
b1010 !
b1010 3
b1010 L
b1010 R
b1010 T
b1010 q
b1010 r
b1010 w
1F
1E
b100 M
b100 A
b100 U
1<
0:
b1011100100000 X
0o
0\
0_
0a
0e
1$
b10 %
b10 7
b10 ]
b10 p
b10 s
0h
1f
1d
b1111001 W
b1111 &
b1111 ;
b1111 V
b1111 ^
1`
b1000100010 (
b1000100010 =
b1000100010 J
b1000100010 u
b100010 #
b100010 6
b100010 Z
b100010 [
b100010 t
b100010 *
b100010 B
b100010 K
b100010 Y
1,
#510
0,
